…
theme_set(theme_minimal())
set.seed(100)
```

## Load the data

``` r
rcfss::scorecard
```

    ## # A tibble: 1,732 × 14
    ##    unitid name        state type  admrate satavg  cost netcost avgfacsal pctpell
    ##     <dbl> <chr>       <chr> <fct>   <dbl>  <dbl> <dbl>   <dbl>     <dbl>   <dbl>
    ##  1 100654 Alabama A … AL    Publ…   0.918    939 23053   14990     69381   0.702
    ##  2 100663 University… AL    Publ…   0.737   1234 24495   16953     99441   0.351
    ##  3 100706 University… AL    Publ…   0.826   1319 23917   15860     87192   0.254
    ##  4 100724 Alabama St… AL    Publ…   0.969    946 21866   13650     64989   0.763
    ##  5 100751 The Univer… AL    Publ…   0.827   1261 29872   22597     92619   0.177
    ##  6 100830 Auburn Uni… AL    Publ…   0.904   1082 19849   13987     71343   0.464
    ##  7 100858 Auburn Uni… AL    Publ…   0.807   1300 31590   24104     96642   0.146
    ##  8 100937 Birmingham… AL    Priv…   0.538   1230 32095   22107     56646   0.236
    ##  9 101189 Faulkner U… AL    Priv…   0.783   1066 34317   20715     54009   0.488
    ## 10 101365 Herzing Un… AL    Priv…   0.783     NA 30119   26680     54684   0.706
    ## # … with 1,722 more rows, and 4 more variables: comprate <dbl>, firstgen <dbl>,
    ## #   debt <dbl>, locale <fct>
…
